-------------------------------------------------------------------------------
Test set: nl.telecats.foundation.commons.util.SpringBeanLoggerTest
-------------------------------------------------------------------------------
Tests run: 1, Failures: 0, Errors: 0, Skipped: 0, Time elapsed: 0.04 sec
