-------------------------------------------------------------------------------
Test set: nl.telecats.web.gwt.push.server.services.EventDispatcherServiceTest
-------------------------------------------------------------------------------
Tests run: 1, Failures: 0, Errors: 0, Skipped: 0, Time elapsed: 0.466 sec
